{
"states": [
	    { "command": "IT-Sware/DB/QA/Web/Graphics/GIS" },
		{ "command": "IT-HWare/Networks/Systems" },
		{ "command": "Accounting/Auditing/Finance" },
		{ "command": "Banking/Insurance" },
		{ "command": "Sales/Marketing/Merchandising" },
		{ "command": "HR/Training" },
		{ "command": "Corporate Management/Analysts" },
		{ "command": "Office Admin/Secretary/Receptionist" },
		{ "command": "Civil Eng/Interior Design/Architecture" },
		{ "command": "IT-Telecoms" },
		{ "command": "Customer Relations/Public Relations" },
		{ "command": "Logistics/Warehouse/Transport" },
		{ "command": "Eng-Mech/Auto/Elec" },
		{ "command": "Manufacturing/Operations" },
		{ "command": "Media/Advert/Communication" },
		{ "command": "Hotels/Restaurants/Food" },
		{ "command": "Hospitality/Tourism" },
		{ "command": "Sports/Fitness/Recreation" },
		{ "command": "Hospital/Nursing/Healthcare" },
		{ "command": "Legal/Law" },
		{ "command": "Supervision/Quality Control" },
		{ "command": "Apparel/Clothing" },
		{ "command": "Ticketing/Airline/Marine" },
		{ "command": "Teaching/Academic/Library" },
		{ "command": "R&D/Science/Research" },
		{ "command": "Agriculture/Dairy/Environment" },
		{ "command": "Security" },
		{ "command": "Fashion/Design/Beauty" },
		{ "command": "International Development" },
		{ "command": "KPO/BPO" },
		{ "command": "Imports/Exports" },
		{ "command": "All Vacancies" }
	]
}